<svg width="386" height="285" viewBox="0 0 386 285" fill="none" xmlns="http://www.w3.org/2000/svg">
<path d="M385.5 135C385.5 209.558 307.15 270 210.5 270C181.675 270 154.477 264.624 130.5 255.1C103.084 244.21 79.8787 227.898 63.2666 208C45.6951 186.953 35.5 161.895 35.5 135C35.5 60.4416 113.85 0 210.5 0C307.15 0 385.5 60.4416 385.5 135Z" fill="#3C40C6"/>
<path d="M130.5 255.1C103.084 244.21 79.8787 227.898 63.2666 208C63.2666 208 55.3397 237.096 43.8833 251.95C41.7966 254.656 39.2528 257.329 36.452 259.912C28.6246 267.13 33.3782 282.595 43.9557 281.376C55.5516 280.041 67.5833 278.153 77.5 275.5C98.9244 269.767 130.5 255.1 130.5 255.1Z" fill="#3C40C6"/>
</svg>
